1 10 20
100 200 125
201 210 89
900 1000 174
132914 166759 383
132914 166759 383
748248 921006 525
42798 941704 525
697552 525741 509
883212 935084 476
182312 184819 334
818615 342860 509
292113 343263 384
802236 732743 468
803273 856183 525
32831 366138 443
226447 326244 443
9320 333719 443
12831 307107 443
739769 287813 509
547610 567724 421
46182 972664 525
11260 336922 443
726765 832689 468
397425 491264 449
776578 899057 525
751995 661618 504
954623 434734 525
733058 995003 525
428545 995615 525
147168 727969 509
369520 676729 509
358545 16185 443
241295 709777 509
272871 610650 470
260446 961427 525
936367 307225 525
717879 468778 509
279564 162487 443
291194 497472 449
270847 578261 470
56495 9182 340
1177 818142 509
176042 658536 509
552190 169758 470
579934 54909 470
437406 278315 449
335810 200253 443
300449 650130 509
510877 685981 509
30266 279727 443
52764 249821 443
618294 825721 509
993142 221414 525
755093 922072 525
682667 314330 509
70283 450249 449
444675 891004 525
971776 511839 525
736289 782203 468
318483 205724 443
914378 181470 525
808470 228358 509
19016 170931 383
178254 899260 525
814503 983151 525
124090 690338 509
460419 493142 444
760967 553963 509
702884 632316 442
504842 749535 509
347889 497554 449
428847 516334 470
14659 428513 449
601643 832572 509
321422 633479 509
263696 50330 443
122997 296392 443
268649 47253 443
791118 182652 509
390723 467751 449
143255 125587 375
586607 137624 470
287009 940138 525
487726 358878 449
177576 322612 443
899152 771194 525
862434 632531 525
759172 913929 525
638940 709681 504
736344 132862 509
651399 693017 442
484737 130606 449
935537 947493 507
781163 131033 509
844781 245719 525
840413 779886 525
376260 857530 525
283481 852687 525
884133 225398 525
622423 704270 509
505306 528382 470
372138 819987 509
78493 612394 470
299327 853822 525
